{
	"msg":"success",
	"code":"200",
	"payload": {
		"color":"blue",
		"oddlist":[
			{
				"type":"Betting Type Final 1",
				"home":{"team":"Team World Elite","logo":"./images/team-world-elite-150x150.png","odd":"1.6"},
				"away":{"team":"Vici Gaming","logo":"./images/vici-gaming-150x150.png","odd":"1.112"}
			},
			{
				"type":"Betting Type Final 2",
				"home":{"team":"Team World Elite","logo":"./images/team-world-elite-150x150.png","odd":"1.3"},
				"away":{"team":"Vici Gaming","logo":"./images/vici-gaming-150x150.png","odd":"1.33"}
			},
			{
				"type":"Betting Type Final 3",
				"home":{"team":"Team World Elite","logo":"./images/team-world-elite-150x150.png","odd":"1.853"},
				"away":{"team":"Vici Gaming","logo":"./images/vici-gaming-150x150.png","odd":"1.14"}
			},
			{
				"type":"Betting Type Final 4",
				"home":{"team":"Team World Elite","logo":"./images/team-world-elite-150x150.png","odd":"1.764"},
				"away":{"team":"Vici Gaming","logo":"./images/vici-gaming-150x150.png","odd":"1.112"}
			},
			{
				"type":"Betting Type Final 5",
				"home":{"team":"Team World Elite","logo":"./images/team-world-elite-150x150.png","odd":"1.24"},
				"away":{"team":"Vici Gaming","logo":"./images/vici-gaming-150x150.png","odd":"1.112"}
			},
			{
				"type":"Betting Type Final 6",
				"home":{"team":"Team World Elite","logo":"./images/team-world-elite-150x150.png","odd":"1.111"},
				"away":{"team":"Vici Gaming","logo":"./images/vici-gaming-150x150.png","odd":"1.112"}
			},
			{
				"type":"Betting Type Final 7",
				"home":{"team":"Team World Elite","logo":"./images/team-world-elite-150x150.png","odd":"1.8"},
				"away":{"team":"Vici Gaming","logo":"./images/vici-gaming-150x150.png","odd":"0.812"}
			}
		]
	}
}
