{
	"msg":"success",
	"code":"200",
	"payload": {
		"league": "lol",
		"gamename": "英雄联盟",
		"color": "blue",
		"id": "wLEVipFeV3",
		"leagueicon":"./images/pop-lol.png",
		"home": {
			"fullname": "Team World Elite",
			"shortname": "WE",
			"logo": "./images/team-world-elite-150x150.png",
			"odd":"1.123",
			"score": "70",
			"number":"1112",
			"chance":"67",
			"lastfive":[
			{"date":"2016-06-11","vs":"./images/vici-gaming-150x150.png","point":"1 : 0","dragon":"20%","blood":"33%","tower":"38%"},
			{"date":"2016-05-19","vs":"./images/imay-150x150.png","point":"1 : 2","dragon":"26%","blood":"53%","tower":"58%"},
			{"date":"2016-05-11","vs":"./images/vici-gaming-150x150.png","point":"1 : 0","dragon":"29%","blood":"33%","tower":"21%"},
			{"date":"2016-04-31","vs":"./images/imay-150x150.png","point":"1 : 2","dragon":"26%","blood":"53%","tower":"58%"},
			{"date":"2016-04-22","vs":"./images/energy-peace-maker-150x150.png","point":"2 : 0","dragon":"58%","blood":"53%","tower":"47%"}
			],
			"radarchart":{"上單":"0","打野":"1","輔助":"1","ADC":"3","中單":"3"},
			"roster":[
				{"上單":"Loong"},
				{"打野":"DanDy"},
				{"輔助":"Easyhoon"},
				{"ADC":"Endless"},
				{"中單":"Caveman"}
			],
			"roster_price":[
				{"上單":"8.6M"},
				{"打野":"5.7M"},
				{"輔助":"5.0M"},
				{"ADC":"2.5M"},
				{"中單":"8.8M"}
			],
			"history":{"strike":"9勝利","vs":"./images/royal-never-give-up-150x150.png"},
			"heroes":[
				{"img":"./images/lol-pantheon.png","rate":"8"},
				{"img":"./images/lol-sivir.png","rate":"22"},
				{"img":"./images/lol-victor.png","rate":"55"},
				{"img":"./images/lol-tristana.png","rate":"18"},
				{"img":"./images/lol-orianna.png","rate":"84"},
				{"img":"./images/lol-sivir.png","rate":"77"},
				{"img":"./images/lol-reksai.png","rate":"65"}
			],
			"forecast":"1"
		},
		"away": {
			"fullname": "Vici Gaming",
			"shortname": "VG",
			"logo": "./images/vici-gaming-150x150.png",
			"odd":"1.111",
			"score": "80",
			"number":"1567",
			"chance":"37",
			"lastfive":[
			{"date":"2016-06-11","vs":"./images/royal-never-give-up-150x150.png","point":"1 : 0","dragon":"20%","blood":"33%","tower":"38%"},
			{"date":"2016-05-19","vs":"./images/team-world-elite-150x150.png","point":"1 : 2","dragon":"26%","blood":"53%","tower":"58%"},
			{"date":"2016-05-11","vs":"./images/edward-gaming-150x150.png","point":"1 : 0","dragon":"29%","blood":"33%","tower":"21%"},
			{"date":"2016-04-31","vs":"./images/edward-gaming-150x150.png","point":"1 : 2","dragon":"26%","blood":"53%","tower":"58%"},
			{"date":"2016-04-22","vs":"./images/royal-never-give-up-150x150.png","point":"2 : 0","dragon":"58%","blood":"53%","tower":"47%"}
			],
			"radarchart":{"上單":"3","打野":"3","輔助":"3","ADC":"3","中單":"2"},
			"roster":[
				{"上單":"Loong"},
				{"打野":"DanDy"},
				{"輔助":"Easyhoon"},
				{"ADC":"Endless"},
				{"中單":"Caveman"}
			],
			"roster_price":[
				{"上單":"8.6M"},
				{"打野":"5.7M"},
				{"輔助":"5.0M"},
				{"ADC":"2.5M"},
				{"中單":"8.8M"}
			],
			"history":{"strike":"3勝利","vs":"./images/edward-gaming-150x150.png"},
			"heroes":[
				{"img":"./images/lol-pantheon.png","rate":"18"},
				{"img":"./images/lol-sivir.png","rate":"32"},
				{"img":"./images/lol-victor.png","rate":"65"},
				{"img":"./images/lol-tristana.png","rate":"28"},
				{"img":"./images/lol-orianna.png","rate":"44"},
				{"img":"./images/lol-sivir.png","rate":"37"},
				{"img":"./images/lol-reksai.png","rate":"35"}
			],
			"forecast":"2"
		},
		"timestamp": "1469923200"
	}
}
